{
  "base_url": "/user/yasmineutt-mt15-2021-tp5-ctk2wyt0/",
  "hostname": "0.0.0.0",
  "notebook_dir": "/home/jovyan",
  "password": false,
  "pid": 18,
  "port": 8888,
  "secure": false,
  "sock": "",
  "token": "l3cRUzxeQHij5sW3u7vNOA",
  "url": "http://0.0.0.0:8888/user/yasmineutt-mt15-2021-tp5-ctk2wyt0/"
}